History.knit
…
seconds = (all_dat
 %>% filter(SpecialWeek == '')
 %>% spread(Vote,Count)
 %>% mutate(Score = `Yes please!` - Nope)
 %>% group_by(Week)
 %>% summarize(Second = Title[get_second(Score)])
 %>% filter(!(Second %in% winners$Winner)))

(seconds
  %>% count(Second)
  %>% arrange(desc(n)))

## # A tibble: 26 x 3
## # Groups:   Week [24]
##    Week       Second                 n
##    <date>     <chr>              <int>
##  1 2020-07-06 BatmanAndRobin         1
##  2 2020-07-13 MyCousinVinnie         1
##  3 2020-08-10 BurnAfterReading       1
##  4 2020-08-10 ShesTheMan             1
##  5 2020-08-17 Blade                  1
##  6 2020-09-21 FAQaTT                 1
##  7 2020-10-19 AddamsFamilyValues     1
##  8 2020-11-02 FirstWivesClub         1
##  9 2020-11-30 Matilda                1
## 10 2021-01-04 Venom                  1
## #  with 16 more rows

Once previous winners are excluded, no movie came in second more than once

Here are the movies that came in second, sorted by how frequently they occurred in lists at all.

sec_freq = left_join(seconds, freqs, by = c('Second' = 'Title'))
sec_freq %>% arrange(desc(Count), desc(Second))

## # A tibble: 26 x 3
## # Groups:   Week [24]
##    Week       Second                 Count
##    <date>     <chr>                  <dbl>
##  1 2020-07-13 MyCousinVinnie             6
##  2 2021-05-10 WarGames                   5
##  3 2021-01-04 Venom                      5
##  4 2021-04-12 MinorityReport             5
##  5 2020-11-30 Matilda                    5
##  6 2020-09-21 FAQaTT                     5
##  7 2021-10-11 TheKitchen                 4
##  8 2021-08-23 SuicideSquad               4
##  9 2021-10-04 NightAtTheMuseum           4
## 10 2021-02-08 HuntForTheWilderpeople     4
## #  with 16 more rows
…
mult_dat = (cat_totals
            %>% select(Week, Vote, Count)
            %>% spread(Vote, Count)
            %>% rename(no = Nope, 
                       yes = `Yes please!`)
            %>% select(Week, no, meh, yes))
mult_dat

## # A tibble: 80 x 4
## # Groups:   Week [80]
##    Week          no   meh   yes
##    <date>     <int> <int> <int>
##  1 2020-06-29     5    63    68
##  2 2020-07-06    16    48    40
##  3 2020-07-13    26    57    53
##  4 2020-07-20    13    55    52
##  5 2020-07-27    19    73    60
##  6 2020-08-03    11    51    42
##  7 2020-08-10     6    36    46
##  8 2020-08-17    21    58    57
##  9 2020-08-24    25    47    72
## 10 2020-08-31    12    43    33
## #  with 70 more rows
…
